Plotting data with R
…
5 Common Graphics

In this section we will show the R code used to generate some common statistical graphics. The graphics will be based on built-in R datasets so you can test them easily and then change the dataset and variable (column headings) parts of the code to easily plot your own data.

5.1 Barchart

Barcharts are sometimes used to plot numerical data, including counts, for a set of categories. It is good practice with a barchart to show the bar from zero rather that cutting off the axis. For our first example of a barchart we’ll use the mpg dataset. This is available once you have loaded in the ggplot or tidyverse package. Do that now…

library(tidyverse) # NB This loads in ggplot as well as other packages

The mpg dataset lists 234 cars and includes data on their manufacturer and fuel efficiency. We can look at the top of the dataset with this…

print(mpg, width = Inf)

## # A tibble: 234 x 11
##    manufacturer      model displ  year   cyl      trans   drv   cty   hwy    fl   class
##           <chr>      <chr> <dbl> <int> <int>      <chr> <chr> <int> <int> <chr>   <chr>
##  1         audi         a4   1.8  1999     4   auto(l5)     f    18    29     p compact
##  2         audi         a4   1.8  1999     4 manual(m5)     f    21    29     p compact
##  3         audi         a4   2.0  2008     4 manual(m6)     f    20    31     p compact
##  4         audi         a4   2.0  2008     4   auto(av)     f    21    30     p compact
##  5         audi         a4   2.8  1999     6   auto(l5)     f    16    26     p compact
##  6         audi         a4   2.8  1999     6 manual(m5)     f    18    26     p compact
##  7         audi         a4   3.1  2008     6   auto(av)     f    18    27     p compact
##  8         audi a4 quattro   1.8  1999     4 manual(m5)     4    18    26     p compact
##  9         audi a4 quattro   1.8  1999     4   auto(l5)     4    16    25     p compact
## 10         audi a4 quattro   2.0  2008     4 manual(m6)     4    20    28     p compact
## # ... with 224 more rows
…
5.3 Histogram

Histograms show a summary of the distribution of a numerical value. In this example we’ll use the diamonds dataset that’s built in to ggplot and should be already loaded if you’ve typed library(tidyverse). First lets look at the dataset…

print(diamonds, width = Inf)

## # A tibble: 53,940 x 10
##    carat       cut color clarity depth table price     x     y     z
##    <dbl>     <ord> <ord>   <ord> <dbl> <dbl> <int> <dbl> <dbl> <dbl>
##  1  0.23     Ideal     E     SI2  61.5    55   326  3.95  3.98  2.43
##  2  0.21   Premium     E     SI1  59.8    61   326  3.89  3.84  2.31
##  3  0.23      Good     E     VS1  56.9    65   327  4.05  4.07  2.31
##  4  0.29   Premium     I     VS2  62.4    58   334  4.20  4.23  2.63
##  5  0.31      Good     J     SI2  63.3    58   335  4.34  4.35  2.75
##  6  0.24 Very Good     J    VVS2  62.8    57   336  3.94  3.96  2.48
##  7  0.24 Very Good     I    VVS1  62.3    57   336  3.95  3.98  2.47
##  8  0.26 Very Good     H     SI1  61.9    55   337  4.07  4.11  2.53
##  9  0.22      Fair     E     VS2  65.1    61   337  3.87  3.78  2.49
## 10  0.23 Very Good     H     VS1  59.4    61   338  4.00  4.05  2.39
## # ... with 53,930 more rows
…
